^C:\DOTNETAPIGRABBER\APIGRABBERSCHEDULER\APIGRABBERTESTER\APIGRABBERTESTER.RESX|C:\DOTNETAPIGRABBER\APIGRABBERSCHEDULER\APIGRABBERTESTER\PROPERTIES\RESOURCES.RESX
C:\DOTNETAPIGRABBER\APIGRABBERSCHEDULER\APIGRABBERTESTER\OBJ\X86\RELEASE\APIGRABBERTESTER.APIGRABBERTESTER.RESOURCES
C:\DOTNETAPIGRABBER\APIGRABBERSCHEDULER\APIGRABBERTESTER\OBJ\X86\RELEASE\APIGRABBERTESTER.PROPERTIES.RESOURCES.RESOURCES
